<?xml version="1.0" encoding="utf-8"?>
<!-- Generator: Adobe Illustrator 24.0.3, SVG Export Plug-In . SVG Version: 6.00 Build 0)  -->
<svg preserveAspectRatio="none" version="1.1" id="Layer_1" xmlns="http://www.w3.org/2000/svg" xmlns:xlink="http://www.w3.org/1999/xlink" x="0px" y="0px"
	 viewBox="0 0 1921 2523" style="enable-background:new 0 0 1921 2523;" xml:space="preserve">
<g id="BG">
	<polygon id="path-1_1_" class="st0" fill="#F7F9FC" points="0,0 1921,0 1921,2523 0,2523 	"/>
</g>
</svg>
